{
  "response":{
    "status":"ok",
    "userTier":"approved",
    "total":309,
    "startIndex":1,
    "pageSize":50,
    "currentPage":1,
    "pages":7,
    "orderBy":"newest",
    "results":[{
      "id":"environment/2012/nov/23/tin-mining-indonesia-bangka",
      "sectionId":"environment",
      "sectionName":"Environment",
      "webPublicationDate":"2012-11-23T22:59:00Z",
      "webTitle":"Death metal: tin mining in Indonesia",
      "webUrl":"http://www.guardian.co.uk/environment/2012/nov/23/tin-mining-indonesia-bangka",
      "apiUrl":"http://content.guardianapis.com/environment/2012/nov/23/tin-mining-indonesia-bangka"
    },{
      "id":"commentisfree/2012/nov/23/australia-safe-debate-racism",
      "sectionId":"commentisfree",
      "sectionName":"Comment is free",
      "webPublicationDate":"2012-11-23T10:00:02Z",
      "webTitle":"Australia's 'safe' debate about racism goes viral | Peter Salmon",
      "webUrl":"http://www.guardian.co.uk/commentisfree/2012/nov/23/australia-safe-debate-racism",
      "apiUrl":"http://content.guardianapis.com/commentisfree/2012/nov/23/australia-safe-debate-racism"
    },{
      "id":"global-development/datablog/2012/nov/18/oecd-south-east-asia-economic-outlook",
      "sectionId":"global-development",
      "sectionName":"Global development",
      "webPublicationDate":"2012-11-18T08:00:00Z",
      "webTitle":"OECD: south-east Asian economic outlook to return to pre-crisis levels",
      "webUrl":"http://www.guardian.co.uk/global-development/datablog/2012/nov/18/oecd-south-east-asia-economic-outlook",
      "apiUrl":"http://content.guardianapis.com/global-development/datablog/2012/nov/18/oecd-south-east-asia-economic-outlook"
    },{
      "id":"theguardian/2012/nov/14/tefl-update-november",
      "sectionId":"theguardian",
      "sectionName":"From the Guardian",
      "webPublicationDate":"2012-11-14T12:30:01Z",
      "webTitle":"TEFL Update for November",
      "webUrl":"http://www.guardian.co.uk/theguardian/2012/nov/14/tefl-update-november",
      "apiUrl":"http://content.guardianapis.com/theguardian/2012/nov/14/tefl-update-november"
    },{
      "id":"science/2012/nov/14/total-eclipse-australia-sun-shade",
      "sectionId":"science",
      "sectionName":"Science",
      "webPublicationDate":"2012-11-14T04:04:00Z",
      "webTitle":"Total eclipse puts Australia's sun havens in the shade",
      "webUrl":"http://www.guardian.co.uk/science/2012/nov/14/total-eclipse-australia-sun-shade",
      "apiUrl":"http://content.guardianapis.com/science/2012/nov/14/total-eclipse-australia-sun-shade"
    },{
      "id":"science/2012/nov/13/total-solar-eclipse-australia",
      "sectionId":"science",
      "sectionName":"Science",
      "webPublicationDate":"2012-11-13T05:26:00Z",
      "webTitle":"Total solar eclipse in Australia leads to influx of amateur astronomers",
      "webUrl":"http://www.guardian.co.uk/science/2012/nov/13/total-solar-eclipse-australia",
      "apiUrl":"http://content.guardianapis.com/science/2012/nov/13/total-solar-eclipse-australia"
    },{
      "id":"law/2012/oct/19/torture-uk-britain-blood-government",
      "sectionId":"law",
      "sectionName":"Law",
      "webPublicationDate":"2012-10-19T21:59:00Z",
      "webTitle":"Torture UK: why Britain has blood on its hands",
      "webUrl":"http://www.guardian.co.uk/law/2012/oct/19/torture-uk-britain-blood-government",
      "apiUrl":"http://content.guardianapis.com/law/2012/oct/19/torture-uk-britain-blood-government"
    },{
      "id":"media-network/2012/oct/10/omd",
      "sectionId":"media-network",
      "sectionName":"Media network",
      "webPublicationDate":"2012-10-10T15:23:27Z",
      "webTitle":"OMD",
      "webUrl":"http://www.guardian.co.uk/media-network/2012/oct/10/omd",
      "apiUrl":"http://content.guardianapis.com/media-network/2012/oct/10/omd"
    },{
      "id":"law/2012/oct/08/promises-libel-law-reform-kept",
      "sectionId":"law",
      "sectionName":"Law",
      "webPublicationDate":"2012-10-08T18:30:45Z",
      "webTitle":"Letters: Promises on libel law reform must be kept",
      "webUrl":"http://www.guardian.co.uk/law/2012/oct/08/promises-libel-law-reform-kept",
      "apiUrl":"http://content.guardianapis.com/law/2012/oct/08/promises-libel-law-reform-kept"
    },{
      "id":"teacher-network/2012/sep/30/international-leadership-links-schools",
      "sectionId":"teacher-network",
      "sectionName":"Teacher Network",
      "webPublicationDate":"2012-09-30T16:01:00Z",
      "webTitle":"Linking leaders: why school leaders partner with peers in other countries",
      "webUrl":"http://www.guardian.co.uk/teacher-network/2012/sep/30/international-leadership-links-schools",
      "apiUrl":"http://content.guardianapis.com/teacher-network/2012/sep/30/international-leadership-links-schools"
    },{
      "id":"news/2012/sep/06/picture-desk-live-the-best-news-pictures-of-the-day",
      "sectionId":"news",
      "sectionName":"News",
      "webPublicationDate":"2012-09-06T09:20:00Z",
      "webTitle":"Picture desk live: the best news pictures of the day",
      "webUrl":"http://www.guardian.co.uk/news/2012/sep/06/picture-desk-live-the-best-news-pictures-of-the-day",
      "apiUrl":"http://content.guardianapis.com/news/2012/sep/06/picture-desk-live-the-best-news-pictures-of-the-day"
    },{
      "id":"world/2012/aug/07/bali-tourism-threatens-natural-beauty",
      "sectionId":"world",
      "sectionName":"World news",
      "webPublicationDate":"2012-08-07T13:01:00Z",
      "webTitle":"Beauty of Bali under threat from pressures of mass tourism",
      "webUrl":"http://www.guardian.co.uk/world/2012/aug/07/bali-tourism-threatens-natural-beauty",
      "apiUrl":"http://content.guardianapis.com/world/2012/aug/07/bali-tourism-threatens-natural-beauty"
    },{
      "id":"global-development/2012/jul/08/fresh-water-tourist-developing",
      "sectionId":"global-development",
      "sectionName":"Global development",
      "webPublicationDate":"2012-07-08T22:41:23Z",
      "webTitle":"Charity condemns tourists' use of fresh water in developing countries",
      "webUrl":"http://www.guardian.co.uk/global-development/2012/jul/08/fresh-water-tourist-developing",
      "apiUrl":"http://content.guardianapis.com/global-development/2012/jul/08/fresh-water-tourist-developing"
    },{
      "id":"theguardian/2012/jun/27/inside-guardian-weekly",
      "sectionId":"theguardian",
      "sectionName":"From the Guardian",
      "webPublicationDate":"2012-06-27T09:27:17Z",
      "webTitle":"Inside the 29 June edition",
      "webUrl":"http://www.guardian.co.uk/theguardian/2012/jun/27/inside-guardian-weekly",
      "apiUrl":"http://content.guardianapis.com/theguardian/2012/jun/27/inside-guardian-weekly"
    },{
      "id":"travel/2012/jun/19/world-top-10-local-travel-guides",
      "sectionId":"travel",
      "sectionName":"Travel",
      "webPublicationDate":"2012-06-19T12:03:10Z",
      "webTitle":"10 of the world's best local travel guides",
      "webUrl":"http://www.guardian.co.uk/travel/2012/jun/19/world-top-10-local-travel-guides",
      "apiUrl":"http://content.guardianapis.com/travel/2012/jun/19/world-top-10-local-travel-guides"
    },{
      "id":"environment/2012/jun/18/rio-20-ban-ki-moon",
      "sectionId":"environment",
      "sectionName":"Environment",
      "webPublicationDate":"2012-06-18T11:56:52Z",
      "webTitle":"Ban Ki-moon: the momentum for change at Rio+20 is irreversible",
      "webUrl":"http://www.guardian.co.uk/environment/2012/jun/18/rio-20-ban-ki-moon",
      "apiUrl":"http://content.guardianapis.com/environment/2012/jun/18/rio-20-ban-ki-moon"
    },{
      "id":"science/grrlscientist/2012/may/20/8",
      "sectionId":"science",
      "sectionName":"Science",
      "webPublicationDate":"2012-05-20T11:00:00Z",
      "webTitle":"Birdbooker Report 222 | GrrlScientist",
      "webUrl":"http://www.guardian.co.uk/science/grrlscientist/2012/may/20/8",
      "apiUrl":"http://content.guardianapis.com/science/grrlscientist/2012/may/20/8"
    },{
      "id":"music/2012/may/20/lady-gaga-faces-asian-concert-bans",
      "sectionId":"music",
      "sectionName":"Music",
      "webPublicationDate":"2012-05-19T23:06:47Z",
      "webTitle":"Christians and Muslims unite in new bid to silence Lady Gaga",
      "webUrl":"http://www.guardian.co.uk/music/2012/may/20/lady-gaga-faces-asian-concert-bans",
      "apiUrl":"http://content.guardianapis.com/music/2012/may/20/lady-gaga-faces-asian-concert-bans"
    },{
      "id":"travel/2012/may/11/scotland-relaxation-break-highlands",
      "sectionId":"travel",
      "sectionName":"Travel",
      "webPublicationDate":"2012-05-11T21:45:00Z",
      "webTitle":"Scotland for the soul",
      "webUrl":"http://www.guardian.co.uk/travel/2012/may/11/scotland-relaxation-break-highlands",
      "apiUrl":"http://content.guardianapis.com/travel/2012/may/11/scotland-relaxation-break-highlands"
    },{
      "id":"world/2012/may/11/timor-leste-marathon",
      "sectionId":"world",
      "sectionName":"World news",
      "webPublicationDate":"2012-05-11T16:07:29Z",
      "webTitle":"Timor-Leste marathon is more than just a race",
      "webUrl":"http://www.guardian.co.uk/world/2012/may/11/timor-leste-marathon",
      "apiUrl":"http://content.guardianapis.com/world/2012/may/11/timor-leste-marathon"
    },{
      "id":"uk/2012/mar/30/international-mining-games-cornwall",
      "sectionId":"uk",
      "sectionName":"UK news",
      "webPublicationDate":"2012-03-30T15:04:16Z",
      "webTitle":"World's miners descend on Cornwall for international mining games",
      "webUrl":"http://www.guardian.co.uk/uk/2012/mar/30/international-mining-games-cornwall",
      "apiUrl":"http://content.guardianapis.com/uk/2012/mar/30/international-mining-games-cornwall"
    },{
      "id":"technology/appsblog/2012/mar/28/apps-rush-tapose-browserquest-flud",
      "sectionId":"technology",
      "sectionName":"Technology",
      "webPublicationDate":"2012-03-28T09:48:02Z",
      "webTitle":"Apps Rush: Your Fantastic Elastic Brain, Taposé, BrowserQuest, Flud, Bean Bag Kids and more",
      "webUrl":"http://www.guardian.co.uk/technology/appsblog/2012/mar/28/apps-rush-tapose-browserquest-flud",
      "apiUrl":"http://content.guardianapis.com/technology/appsblog/2012/mar/28/apps-rush-tapose-browserquest-flud"
    },{
      "id":"society/2012/mar/22/michael-bloomberg-smoking-pledge",
      "sectionId":"society",
      "sectionName":"Society",
      "webPublicationDate":"2012-03-22T04:15:00Z",
      "webTitle":"Michael Bloomberg makes $220m pledge to stub out global smoking habit",
      "webUrl":"http://www.guardian.co.uk/society/2012/mar/22/michael-bloomberg-smoking-pledge",
      "apiUrl":"http://content.guardianapis.com/society/2012/mar/22/michael-bloomberg-smoking-pledge"
    },{
      "id":"science/grrlscientist/2012/mar/18/1",
      "sectionId":"science",
      "sectionName":"Science",
      "webPublicationDate":"2012-03-18T12:00:00Z",
      "webTitle":"Birdbooker Report 213 | GrrlScientist",
      "webUrl":"http://www.guardian.co.uk/science/grrlscientist/2012/mar/18/1",
      "apiUrl":"http://content.guardianapis.com/science/grrlscientist/2012/mar/18/1"
    },{
      "id":"commentisfree/andrewbrown/2011/dec/13/british-christians-persecution-middle-east",
      "sectionId":"commentisfree",
      "sectionName":"Comment is free",
      "webPublicationDate":"2011-12-13T16:07:37Z",
      "webTitle":"British Christians are making a stand against persecution | Andrew Brown",
      "webUrl":"http://www.guardian.co.uk/commentisfree/andrewbrown/2011/dec/13/british-christians-persecution-middle-east",
      "apiUrl":"http://content.guardianapis.com/commentisfree/andrewbrown/2011/dec/13/british-christians-persecution-middle-east"
    },{
      "id":"environment/2011/nov/10/competition-seven-wonders-natural-world-trouble",
      "sectionId":"environment",
      "sectionName":"Environment",
      "webPublicationDate":"2011-11-10T15:14:30Z",
      "webTitle":"Competition for seven wonders of natural world runs into trouble",
      "webUrl":"http://www.guardian.co.uk/environment/2011/nov/10/competition-seven-wonders-natural-world-trouble",
      "apiUrl":"http://content.guardianapis.com/environment/2011/nov/10/competition-seven-wonders-natural-world-trouble"
    },{
      "id":"artanddesign/2011/oct/02/british-ceramics-biennial-potteries-stoke",
      "sectionId":"artanddesign",
      "sectionName":"Art and design",
      "webPublicationDate":"2011-10-02T16:21:53Z",
      "webTitle":"British Ceramics Biennial brings signs of a Potteries revival",
      "webUrl":"http://www.guardian.co.uk/artanddesign/2011/oct/02/british-ceramics-biennial-potteries-stoke",
      "apiUrl":"http://content.guardianapis.com/artanddesign/2011/oct/02/british-ceramics-biennial-potteries-stoke"
    },{
      "id":"travel/2011/sep/16/the-only-way-is-essex-tour",
      "sectionId":"travel",
      "sectionName":"Travel",
      "webPublicationDate":"2011-09-16T19:38:41Z",
      "webTitle":"Get Essex-ed up \u2013 it's the only way",
      "webUrl":"http://www.guardian.co.uk/travel/2011/sep/16/the-only-way-is-essex-tour",
      "apiUrl":"http://content.guardianapis.com/travel/2011/sep/16/the-only-way-is-essex-tour"
    },{
      "id":"commentisfree/2011/sep/15/outsourcing-porn-sex-work",
      "sectionId":"commentisfree",
      "sectionName":"Comment is free",
      "webPublicationDate":"2011-09-15T13:30:00Z",
      "webTitle":"Outsourcing porn | Jill Filipovic",
      "webUrl":"http://www.guardian.co.uk/commentisfree/2011/sep/15/outsourcing-porn-sex-work",
      "apiUrl":"http://content.guardianapis.com/commentisfree/2011/sep/15/outsourcing-porn-sex-work"
    },{
      "id":"travel/2011/aug/30/visa-problems-losing-europe-tourists",
      "sectionId":"travel",
      "sectionName":"Travel",
      "webPublicationDate":"2011-08-30T20:00:03Z",
      "webTitle":"Letters: Visa problems losing Europe tourists",
      "webUrl":"http://www.guardian.co.uk/travel/2011/aug/30/visa-problems-losing-europe-tourists",
      "apiUrl":"http://content.guardianapis.com/travel/2011/aug/30/visa-problems-losing-europe-tourists"
    },{
      "id":"travel/2011/aug/19/gap-year-trips-itineraries",
      "sectionId":"travel",
      "sectionName":"Travel",
      "webPublicationDate":"2011-08-19T21:45:00Z",
      "webTitle":"Perfect gap-year itineraries",
      "webUrl":"http://www.guardian.co.uk/travel/2011/aug/19/gap-year-trips-itineraries",
      "apiUrl":"http://content.guardianapis.com/travel/2011/aug/19/gap-year-trips-itineraries"
    },{
      "id":"science/punctuated-equilibrium/2011/jun/19/5",
      "sectionId":"science",
      "sectionName":"Science",
      "webPublicationDate":"2011-06-19T17:05:42Z",
      "webTitle":"Birdbooker Report 175",
      "webUrl":"http://www.guardian.co.uk/science/punctuated-equilibrium/2011/jun/19/5",
      "apiUrl":"http://content.guardianapis.com/science/punctuated-equilibrium/2011/jun/19/5"
    },{
      "id":"commentisfree/2011/may/26/britain-volcanic-past",
      "sectionId":"commentisfree",
      "sectionName":"Comment is free",
      "webPublicationDate":"2011-05-26T16:00:01Z",
      "webTitle":"Britain's volcanic past | Ian Vince",
      "webUrl":"http://www.guardian.co.uk/commentisfree/2011/may/26/britain-volcanic-past",
      "apiUrl":"http://content.guardianapis.com/commentisfree/2011/may/26/britain-volcanic-past"
    },{
      "id":"travel/2011/may/15/lombok-indonesia-beach-holiday",
      "sectionId":"travel",
      "sectionName":"Travel",
      "webPublicationDate":"2011-05-14T23:05:21Z",
      "webTitle":"Lombok: the quieter side of Bali",
      "webUrl":"http://www.guardian.co.uk/travel/2011/may/15/lombok-indonesia-beach-holiday",
      "apiUrl":"http://content.guardianapis.com/travel/2011/may/15/lombok-indonesia-beach-holiday"
    },{
      "id":"uk/2011/may/13/queen-first-ireland-visit",
      "sectionId":"uk",
      "sectionName":"UK news",
      "webPublicationDate":"2011-05-13T17:36:13Z",
      "webTitle":"Queen set for first Republic of Ireland visit",
      "webUrl":"http://www.guardian.co.uk/uk/2011/may/13/queen-first-ireland-visit",
      "apiUrl":"http://content.guardianapis.com/uk/2011/may/13/queen-first-ireland-visit"
    },{
      "id":"world/blog/2011/may/05/osama-bin-laden-death-aftermath",
      "sectionId":"world",
      "sectionName":"World news",
      "webPublicationDate":"2011-05-05T08:07:00Z",
      "webTitle":"Osama bin Laden's death: aftermath and reaction",
      "webUrl":"http://www.guardian.co.uk/world/blog/2011/may/05/osama-bin-laden-death-aftermath",
      "apiUrl":"http://content.guardianapis.com/world/blog/2011/may/05/osama-bin-laden-death-aftermath"
    },{
      "id":"commentisfree/michaeltomasky/2011/apr/15/usa-friday-quiz-natural-wonders",
      "sectionId":"commentisfree",
      "sectionName":"Comment is free",
      "webPublicationDate":"2011-04-15T14:39:59Z",
      "webTitle":"Friday quiz: don't mess with Mother Nature | Michael Tomasky",
      "webUrl":"http://www.guardian.co.uk/commentisfree/michaeltomasky/2011/apr/15/usa-friday-quiz-natural-wonders",
      "apiUrl":"http://content.guardianapis.com/commentisfree/michaeltomasky/2011/apr/15/usa-friday-quiz-natural-wonders"
    },{
      "id":"stage/theatreblog/2011/mar/23/edinburgh-festival-2011-looks-east",
      "sectionId":"culture",
      "sectionName":"Culture",
      "webPublicationDate":"2011-03-23T14:49:53Z",
      "webTitle":"Edinburgh festival looks east \u2013 but is it cultural tourism? | Mark Fisher",
      "webUrl":"http://www.guardian.co.uk/stage/theatreblog/2011/mar/23/edinburgh-festival-2011-looks-east",
      "apiUrl":"http://content.guardianapis.com/stage/theatreblog/2011/mar/23/edinburgh-festival-2011-looks-east"
    },{
      "id":"world/us-embassy-cables-documents/38987",
      "sectionId":"world",
      "sectionName":"World news",
      "webPublicationDate":"2010-12-15T15:23:55Z",
      "webTitle":"US embassy cables: Why Holland is so important to US",
      "webUrl":"http://www.guardian.co.uk/world/us-embassy-cables-documents/38987",
      "apiUrl":"http://content.guardianapis.com/world/us-embassy-cables-documents/38987"
    },{
      "id":"world/2010/nov/16/mentawai-islands-indonesia-tsunami",
      "sectionId":"world",
      "sectionName":"World news",
      "webPublicationDate":"2010-11-16T16:29:09Z",
      "webTitle":"Life on the Mentawai Islands: displaced, robbed and washed away",
      "webUrl":"http://www.guardian.co.uk/world/2010/nov/16/mentawai-islands-indonesia-tsunami",
      "apiUrl":"http://content.guardianapis.com/world/2010/nov/16/mentawai-islands-indonesia-tsunami"
    },{
      "id":"business/2010/nov/10/baa-foreign-tourists-put-off-uk",
      "sectionId":"business",
      "sectionName":"Business",
      "webPublicationDate":"2010-11-10T12:58:35Z",
      "webTitle":"BAA warns foreign tourists put off by UK spending cuts and tax rises",
      "webUrl":"http://www.guardian.co.uk/business/2010/nov/10/baa-foreign-tourists-put-off-uk",
      "apiUrl":"http://content.guardianapis.com/business/2010/nov/10/baa-foreign-tourists-put-off-uk"
    },{
      "id":"travel/2010/nov/01/flyer-email-roundup",
      "sectionId":"travel",
      "sectionName":"Travel",
      "webPublicationDate":"2010-11-01T13:06:00Z",
      "webTitle":"The Flyer: an American adventure",
      "webUrl":"http://www.guardian.co.uk/travel/2010/nov/01/flyer-email-roundup",
      "apiUrl":"http://content.guardianapis.com/travel/2010/nov/01/flyer-email-roundup"
    },{
      "id":"commentisfree/2010/sep/24/backpacker-travel-benefit-poor-countries",
      "sectionId":"commentisfree",
      "sectionName":"Comment is free",
      "webPublicationDate":"2010-09-23T23:04:38Z",
      "webTitle":"Response: Backpacker tourism can be beneficial for poor countries",
      "webUrl":"http://www.guardian.co.uk/commentisfree/2010/sep/24/backpacker-travel-benefit-poor-countries",
      "apiUrl":"http://content.guardianapis.com/commentisfree/2010/sep/24/backpacker-travel-benefit-poor-countries"
    },{
      "id":"commentisfree/belief/2010/aug/18/religion-roundup-ramadan",
      "sectionId":"commentisfree",
      "sectionName":"Comment is free",
      "webPublicationDate":"2010-08-18T08:00:19Z",
      "webTitle":"Divine dispatches: a religion roundup | Riazat Butt",
      "webUrl":"http://www.guardian.co.uk/commentisfree/belief/2010/aug/18/religion-roundup-ramadan",
      "apiUrl":"http://content.guardianapis.com/commentisfree/belief/2010/aug/18/religion-roundup-ramadan"
    },{
      "id":"world/2010/jul/20/bali-tourism-boom-culture-threat",
      "sectionId":"world",
      "sectionName":"World news",
      "webPublicationDate":"2010-07-20T13:01:06Z",
      "webTitle":"Bali fears for its cultural heritage as tourists flood into Indonesia",
      "webUrl":"http://www.guardian.co.uk/world/2010/jul/20/bali-tourism-boom-culture-threat",
      "apiUrl":"http://content.guardianapis.com/world/2010/jul/20/bali-tourism-boom-culture-threat"
    },{
      "id":"environment/2010/jun/04/deepwater-horizon-spill-bird-impact",
      "sectionId":"environment",
      "sectionName":"Environment",
      "webPublicationDate":"2010-06-04T18:01:08Z",
      "webTitle":"Deepwater Horizon wildlife rescues go into overdrive as slick hits coast",
      "webUrl":"http://www.guardian.co.uk/environment/2010/jun/04/deepwater-horizon-spill-bird-impact",
      "apiUrl":"http://content.guardianapis.com/environment/2010/jun/04/deepwater-horizon-spill-bird-impact"
    },{
      "id":"leeds/2010/may/16/leeds-today-leeds-bradford-airport-ash-and-the-good-stuff",
      "sectionId":"leeds",
      "sectionName":"Leeds",
      "webPublicationDate":"2010-05-17T06:10:00Z",
      "webTitle":"Leeds today - Leeds-Bradford Airport latest and The Good Stuff",
      "webUrl":"http://www.guardian.co.uk/leeds/2010/may/16/leeds-today-leeds-bradford-airport-ash-and-the-good-stuff",
      "apiUrl":"http://content.guardianapis.com/leeds/2010/may/16/leeds-today-leeds-bradford-airport-ash-and-the-good-stuff"
    },{
      "id":"books/2010/may/02/barack-obama-us-presidency-biography",
      "sectionId":"books",
      "sectionName":"Books",
      "webPublicationDate":"2010-05-01T23:05:23Z",
      "webTitle":"The Bridge: The Life and Rise of Barack Obama by David Remnick",
      "webUrl":"http://www.guardian.co.uk/books/2010/may/02/barack-obama-us-presidency-biography",
      "apiUrl":"http://content.guardianapis.com/books/2010/may/02/barack-obama-us-presidency-biography"
    },{
      "id":"environment/2010/apr/22/new-species-borneo",
      "sectionId":"environment",
      "sectionName":"Environment",
      "webPublicationDate":"2010-04-22T06:40:01Z",
      "webTitle":"Lungless frog and 'ninja slug' among new species discovered under Borneo protection plan",
      "webUrl":"http://www.guardian.co.uk/environment/2010/apr/22/new-species-borneo",
      "apiUrl":"http://content.guardianapis.com/environment/2010/apr/22/new-species-borneo"
    },{
      "id":"commentisfree/2010/apr/20/icelandic-volcanic-ash-cloud-editorial",
      "sectionId":"commentisfree",
      "sectionName":"Comment is free",
      "webPublicationDate":"2010-04-19T23:05:12Z",
      "webTitle":"Measuring risk: As the dust settles | Editorial",
      "webUrl":"http://www.guardian.co.uk/commentisfree/2010/apr/20/icelandic-volcanic-ash-cloud-editorial",
      "apiUrl":"http://content.guardianapis.com/commentisfree/2010/apr/20/icelandic-volcanic-ash-cloud-editorial"
    }]
  }
}